…
Notes: In this first case study, we are going to use the mtcars dataset to train regression models. No, I'm kidding! I would never do that to you! I can only imagine that you are as sick of mtcars as I am.

---

# Fuel efficiency

From the [US Department of Energy](https://www.fueleconomy.gov/feg/download.shtml)

```out
> cars2018

# A tibble: 1,144 x 15
   Model          `Model Index` Displacement Cylinders Gears Transmission   MPG
   <chr>                  <dbl>        <dbl>     <dbl> <dbl> <chr>        <dbl>
 1 Acura NSX               57.0         3.50      6.00  9.00 Manual        21.0
 2 ALFA ROMEO 4C          410           1.80      4.00  6.00 Manual        28.0
 3 Audi R8 AWD             65.0         5.20     10.0   7.00 Manual        17.0
 4 Audi R8 RWD             71.0         5.20     10.0   7.00 Manual        18.0
 5 Audi R8 Spyde…          66.0         5.20     10.0   7.00 Manual        17.0
 6 Audi R8 Spyde…          72.0         5.20     10.0   7.00 Manual        18.0
 7 Audi TT Roads…          46.0         2.00      4.00  6.00 Manual        26.0
 8 BMW M4 DTM Ch…         488           3.00      6.00  7.00 Manual        20.0
 9 Bugatti Chiron          38.0         8.00     16.0   7.00 Manual        11.0
10 Chevrolet COR…         278           6.20      8.00  8.00 Automatic     18.0
# ... with 1,134 more rows, and 8 more variables: Aspiration <chr>, `Lockup
#   Torque Converter` <chr>, Drive <chr>, `Max Ethanol` <dbl>, `Recommended
#   Fuel` <fct>, `Intake Valves Per Cyl` <dbl>, `Exhaust Valves Per Cyl` <dbl>,
#   `Fuel injection` <chr>
```
…
Notes: Notice that some of these column names have spaces in them; you may not have run into that before. R can handle some weird characters in variable names.

---

# Special characters in variable names

```r
> cars2018 %>%
+     select(`Fuel injection`)

# A tibble: 1,144 x 1
   `Fuel injection`              
   <chr>                         
 1 Direct ignition               
 2 Direct ignition               
 3 Direct ignition               
 4 Direct ignition               
 5 Direct ignition               
 6 Direct ignition               
 7 Direct ignition               
 8 Direct ignition               
 9 Multipoint/sequential ignition
10 Direct ignition               
# ... with 1,134 more rows
```
…
