…
Notes: Stack Overflow is the world's largest, most trusted online community for developers (I bet you have used it!) and every year there is a large survey of developers, to learn about developers' opinions on different technologies, work habits, and so forth. 

---

# Stack Overflow Developer Survey

```out
> stackoverflow

# A tibble: 6,991 x 22
   Respondent Country    Salary YearsCodedJob OpenSource Hobby CompanySizeNumb…
        <int> <chr>       <dbl>         <dbl> <lgl>      <lgl>            <dbl>
 1          3 United Ki… 113750         20.0  T          T              10000  
 2         15 United Ki… 100000         20.0  F          T               5000  
 3         18 United St… 130000         20.0  T          T               1000  
 4         19 United St…  82500          3.00 F          T              10000  
 5         26 United St… 175000         16.0  F          T              10000  
 6         55 Germany     64516          4.00 F          F               1000  
 7         62 India        6636          1.00 F          T               5000  
 8         71 United St…  65000          1.00 F          T                 20.0
 9         73 United St… 120000         20.0  T          T                100  
10         77 United St…  96283         20.0  T          T               1000  
# ... with 6,981 more rows, and 15 more variables: Remote <fct>,
#   CareerSatisfaction <int>, `Data scientist` <lgl>, `Database
#   administrator` <lgl>, `Desktop applications developer` <lgl>, `Developer
#   with stats/math background` <lgl>, DevOps <lgl>, `Embedded
#   developer` <lgl>, `Graphic designer` <lgl>, `Graphics programming` <lgl>,
#   `Machine learning specialist` <lgl>, `Mobile developer` <lgl>, `Quality
#   assurance engineer` <lgl>, `Systems administrator` <lgl>, `Web
#   developer` <lgl>
```
…
