…
Notes: We draw 900 times from the training dataset with replacement again and fit another model. We repeat that some number of times, look at all the models we fit on the bootstrap samples, determine each model's individual performance by evaluating on the cars that were not included in each bootstrap resample, and then take an average of the performance metrics.

This approach does take longer, obviously, than fitting on the data one time. In your exercise, you will have a subset of the complete dataset to try this out with.

---

# Bootstrap resampling with tidymodels

```r
bootstraps(car_train)
```

```out
# Bootstrap sampling 
# A tibble: 25 x 2
   splits            id         
   <list>            <chr>      
 1 <split [916/328]> Bootstrap01
 2 <split [916/347]> Bootstrap02
 3 <split [916/331]> Bootstrap03
 4 <split [916/333]> Bootstrap04
 5 <split [916/346]> Bootstrap05
 6 <split [916/329]> Bootstrap06
 7 <split [916/320]> Bootstrap07
 8 <split [916/342]> Bootstrap08
 9 <split [916/339]> Bootstrap09
10 <split [916/334]> Bootstrap10
# … with 15 more rows
```
…
