…
Notes: There are a lot of questions on this survey, so many that I can't go over them all with you in this course, but they are all about people's opinions on political and economic topics. The survey asks respondents how they feel about where the US economy is headed, whether they think their vote makes a difference, and how important various issues are to them.

---

# Views of the Electorate Research Survey (VOTER) 🇺🇸


```out
> voters

# A tibble: 6,692 x 43
   case_identifier turnout16_2016 RIGGED_SYSTEM_1_2016 RIGGED_SYSTEM_2_2016
             <int> <fct>                         <int>                <int>
 1             779 Voted                             3                    4
 2            2108 Voted                             2                    1
 3            2597 Voted                             2                    4
 4            4148 Voted                             1                    4
 5            4460 Voted                             3                    1
 6            5225 Voted                             3                    3
 7            5903 Voted                             3                    4
 8            6059 Voted                             2                    3
 9            8048 Voted                             4                    4
10           13112 Voted                             2                    3
# ... with 6,682 more rows, and 39 more variables: RIGGED_SYSTEM_3_2016 <int>,
#   RIGGED_SYSTEM_4_2016 <int>, RIGGED_SYSTEM_5_2016 <int>,
#   RIGGED_SYSTEM_6_2016 <int>, track_2016 <int>, persfinretro_2016 <int>,
#   econtrend_2016 <int>, Americatrend_2016 <int>, futuretrend_2016 <int>,
#   wealth_2016 <int>, values_culture_2016 <int>, US_respect_2016 <int>,
#   trustgovt_2016 <int>, trust_people_2016 <int>, helpful_people_2016 <int>,
#   fair_people_2016 <int>, imiss_a_2016 <int>, imiss_b_2016 <int>,
#   imiss_c_2016 <int>, imiss_d_2016 <int>, imiss_e_2016 <int>,
#   imiss_f_2016 <int>, imiss_g_2016 <int>, imiss_h_2016 <int>,
…
