…
Check out the survey's [codebook](https://curate.nd.edu/downloads/0v838051f6x).

Notes: There is demographic information in the survey, along with a lot of diverse kinds of questions. About 60 of the survey questions were agreement questions, with a *statement* (of some kind) that the survey asked the respondent to agree or disagree with on this scale. The answers are coded as integers from 1 to 5.

---

# Opinions and attitudes in the 1960s

```r
> sisters67
```
```out
# A tibble: 77,112 x 67
     age sister  v116  v117  v118  v119  v120  v121  v122  v123  v124  v125  v126  v127
   <dbl>  <dbl> <dbl> <dbl> <dbl> <dbl> <dbl> <dbl> <dbl> <dbl> <dbl> <dbl> <dbl> <dbl>
 1    60      1     1     1     3     5     1     1     3     5     3     1     1     3
 2    70      2     2     2     4     4     1     3     1     5     4     1     4     4
 3    60      3     1     1     3     2     2     3     1     1     3     1     1     1
 4    60      4     5     1     2     4     1     3     4     3     3     4     1     1
 5    50      5     2     3     3     3     2     2     1     5     2     5     5     5
 6    40      7     4     3     2     5     4     3     1     5     2     5     4     4
 7    50      9     5     4     5     4     4     5     3     5     4     2     1     5
 8    40     10     5     4     3     5     1     3     5     5     5     4     1     5
 9    30     11     2     2     3     5     1     3     3     5     1     3     1     2
10    30     12     4     1     5     5     1     4     3     5     1     5     1     1
# … with 77,102 more rows, and 53 more variables: v128 <dbl>, v129 <dbl>, v130 <dbl>,
#   v131 <dbl>, v132 <dbl>, v133 <dbl>, v134 <dbl>, v135 <dbl>, v136 <dbl>, v137 <dbl>,
#   v138 <dbl>, v139 <dbl>, v140 <dbl>, v141 <dbl>, v142 <dbl>, v143 <dbl>, v144 <dbl>,
#   v145 <dbl>, v146 <dbl>, v147 <dbl>, v148 <dbl>, v149 <dbl>, v150 <dbl>, v151 <dbl>,
#   v152 <dbl>, v153 <dbl>, v154 <dbl>, v155 <dbl>, v156 <dbl>, v157 <dbl>, v158 <dbl>,
#   v159 <dbl>, v160 <dbl>, v161 <dbl>, v162 <dbl>, v163 <dbl>, v164 <dbl>, v165 <dbl>,
#   v166 <dbl>, v167 <dbl>, v168 <dbl>, v169 <dbl>, v170 <dbl>, v171 <dbl>, v172 <dbl>,
#   v173 <dbl>, v174 <dbl>, v175 <dbl>, v176 <dbl>, v177 <dbl>, v178 <dbl>, v179 <dbl>,
#   v180 <dbl>
```
…
I do want to point out that this survey was fielded during the 1960s and there are some words used, for example for people of color, that are not used in professional or academic environments today. This is a historical dataset that we can approach and understand as centered in its context.

---

# Tidy your data

```r
sisters67 %>%
    select(-sister) %>%
    pivot_longer(-age, names_to = "question", values_to = "rating")
```

```out
# A tibble: 5,012,280 x 3
     age question rating
   <dbl> <chr>     <dbl>
 1    60 v116          1
 2    60 v117          1
 3    60 v118          3
 4    60 v119          5
 5    60 v120          1
 6    60 v121          1
 7    60 v122          3
 8    60 v123          5
 9    60 v124          3
10    60 v125          1
# … with 5,012,270 more rows
```
…
